{"help": "https://data.ontario.ca/api/3/action/help_show?name=datastore_search", "success": true, "result": {"include_total": true, "resource_id": "ed270bb8-340b-41f9-a7c6-e8ef587e6d11", "fields": [{"type": "int", "id": "_id"}, {"type": "timestamp", "id": "Reported Date"}, {"type": "numeric", "id": "Confirmed Negative"}, {"type": "numeric", "id": "Presumptive Negative"}, {"type": "numeric", "id": "Presumptive Positive"}, {"type": "numeric", "id": "Confirmed Positive"}, {"type": "numeric", "id": "Resolved"}, {"type": "numeric", "id": "Deaths"}, {"type": "numeric", "id": "Total Cases"}, {"type": "numeric", "id": "Total patients approved for testing as of Reporting Date"}, {"type": "numeric", "id": "Total tests completed in the last day"}, {"type": "numeric", "id": "Percent positive tests in last day"}, {"type": "numeric", "id": "Under Investigation"}, {"type": "numeric", "id": "Number of patients hospitalized with COVID-19"}, {"type": "numeric", "id": "Number of patients in ICU with COVID-19"}, {"type": "numeric", "id": "Number of patients in ICU on a ventilator with COVID-19"}, {"type": "numeric", "id": "Total Positive LTC Resident Cases"}, {"type": "numeric", "id": "Total Positive LTC HCW Cases"}, {"type": "numeric", "id": "Total LTC Resident Deaths"}, {"type": "numeric", "id": "Total LTC HCW Deaths"}], "records_format": "objects", "records": [{"_id":1,"Reported Date":"2020-01-26T00:00:00","Confirmed Negative":null,"Presumptive Negative":null,"Presumptive Positive":1,"Confirmed Positive":null,"Resolved":null,"Deaths":null,"Total Cases":null,"Total patients approved for testing as of Reporting Date":null,"Total tests completed in the last day":null,"Percent positive tests in last day":null,"Under Investigation":9,"Number of patients hospitalized with COVID-19":null,"Number of patients in ICU with COVID-19":null,"Number of patients in ICU on a ventilator with COVID-19":null,"Total Positive LTC Resident Cases":null,"Total Positive LTC HCW Cases":null,"Total LTC Resident Deaths":null,"Total LTC HCW Deaths":null},{"_id":2,"Reported Date":"2020-01-27T00:00:00","Confirmed Negative":null,"Presumptive Negative":null,"Presumptive Positive":2,"Confirmed Positive":null,"Resolved":null,"Deaths":null,"Total Cases":null,"Total patients approved for testing as of Reporting Date":null,"Total tests completed in the last day":null,"Percent positive tests in last day":null,"Under Investigation":19,"Number of patients hospitalized with COVID-19":null,"Number of patients in ICU with COVID-19":null,"Number of patients in ICU on a ventilator with COVID-19":null,"Total Positive LTC Resident Cases":null,"Total Positive LTC HCW Cases":null,"Total LTC Resident Deaths":null,"Total LTC HCW Deaths":null},{"_id":3,"Reported Date":"2020-01-28T00:00:00","Confirmed Negative":null,"Presumptive Negative":null,"Presumptive Positive":1,"Confirmed Positive":1,"Resolved":null,"Deaths":null,"Total Cases":1,"Total patients approved for testing as of Reporting Date":null,"Total tests completed in the last day":null,"Percent positive tests in last day":null,"Under Investigation":11,"Number of patients hospitalized with COVID-19":null,"Number of patients in ICU with COVID-19":null,"Number of patients in ICU on a ventilator with COVID-19":null,"Total Positive LTC Resident Cases":null,"Total Positive LTC HCW Cases":null,"Total LTC Resident Deaths":null,"Total LTC HCW Deaths":null},{"_id":4,"Reported Date":"2020-01-30T00:00:00","Confirmed Negative":null,"Presumptive Negative":null,"Presumptive Positive":0,"Confirmed Positive":2,"Resolved":null,"Deaths":null,"Total Cases":2,"Total patients approved for testing as of Reporting Date":null,"Total tests completed in the last day":null,"Percent positive tests in last day":null,"Under Investigation":27,"Number of patients hospitalized with COVID-19":null,"Number of patients in ICU with COVID-19":null,"Number of patients in ICU on a ventilator with COVID-19":null,"Total Positive LTC Resident Cases":null,"Total Positive LTC HCW Cases":null,"Total LTC Resident Deaths":null,"Total LTC HCW Deaths":null},{"_id":5,"Reported Date":"2020-01-31T00:00:00","Confirmed Negative":null,"Presumptive Negative":null,"Presumptive Positive":0,"Confirmed Positive":2,"Resolved":null,"Deaths":null,"Total Cases":2,"Total patients approved for testing as of Reporting Date":null,"Total tests completed in the last day":null,"Percent positive tests in last day":null,"Under Investigation":17,"Number of patients hospitalized with COVID-19":null,"Number of patients in ICU with COVID-19":null,"Number of patients in ICU on a ventilator with COVID-19":null,"Total Positive LTC Resident Cases":null,"Total Positive LTC HCW Cases":null,"Total LTC Resident Deaths":null,"Total LTC HCW Deaths":null}], "limit": 5, "_links": {"start": "/api/3/action/datastore_search?limit=5&resource_id=ed270bb8-340b-41f9-a7c6-e8ef587e6d11", "next": "/api/3/action/datastore_search?offset=5&limit=5&resource_id=ed270bb8-340b-41f9-a7c6-e8ef587e6d11"}, "total": 328}}